// Jest Snapshot v1, https://goo.gl/fbAQLP

exports[`ExampleWrapper component matches Subtitle snapshot 0 1`] = `
<h1>
  odd
</h1>
`;

exports[`ExampleWrapper component matches Subtitle snapshot 1 1`] = `
<h1>
  even
</h1>
`;
